{
  "project_info": {
    "project_number": "534921637264",
    "firebase_url": "https://grace-life-kids-281814-default-rtdb.firebaseio.com",
    "project_id": "grace-life-kids-281814",
    "storage_bucket": "grace-life-kids-281814.appspot.com"
  },
  "client": [
    {
      "client_info": {
        "mobilesdk_app_id": "1:534921637264:android:8abc539ee7e17c0657d715",
        "android_client_info": {
          "package_name": "com.yourgracelife.kids"
        }
      },
      "oauth_client": [
        {
          "client_id": "534921637264-ekdd1amcod8onrc6dao3g3g3sbqmhlc6.apps.googleusercontent.com",
          "client_type": 3
        }
      ],
      "api_key": [
        {
          "current_key": "AIzaSyDW4fkxWZY4A1VSq5-EYTqavZRr2GjZl5s"
        }
      ],
      "services": {
        "appinvite_service": {
          "other_platform_oauth_client": [
            {
              "client_id": "534921637264-ekdd1amcod8onrc6dao3g3g3sbqmhlc6.apps.googleusercontent.com",
              "client_type": 3
            },
            {
              "client_id": "534921637264-abh0134ot4rhcl1dmb6cpnh0g4fkvomc.apps.googleusercontent.com",
              "client_type": 2,
              "ios_info": {
                "bundle_id": "com.yourgracelife.kids"
              }
            }
          ]
        }
      }
    }
  ],
  "configuration_version": "1"
}