{
    "attributes": [
        {
            "name": "eternal",
            "extension": "png",
            "color": "#805655"
        },
        {
            "name": "faithful",
            "extension": "png",
            "color": "#71607c"
        },
        {
            "name": "good",
            "extension": "png",
            "color": "#728b5a"
        },
        {
            "name": "holy",
            "extension": "png",
            "color": "#82a6bd"
        },
        {
            "name": "incomprehensible",
            "extension": "png",
            "color": "#31535d"
        },
        {
            "name": "just",
            "extension": "png",
            "color": "#c19e5d"
        },
        {
            "name": "love",
            "extension": "png",
            "color": "#993527"
        },
        {
            "name": "omnipotent",
            "extension": "png",
            "color": "#33373b"
        },
        {
            "name": "omnipresent",
            "extension": "png",
            "color": "#919a7b"
        },
        {
            "name": "omniscient",
            "extension": "png",
            "color": "#756473"
        },
        {
            "name": "triune",
            "extension": "png",
            "color": "#9c92ac"
        },
        {
            "name": "unchangeable",
            "extension": "png",
            "color": "#446463"
        }
    ]
}